{
  "mode": "dev",
  "NSAuthentication": {
    "SendAuth": "5TVDpAHPqLZSNY7EuLWJWDhLVaGBi862qlNp48ULcgaR6oDDH2hCLKdY92MA0pG",
    "ReceiveAuth": "DHA5ZsROSYuY1jJXxOcHS4dKNODjgzJPnsMFIEumUpOizL6dj9GnU8QC2Ctd2x8",
    "Sendiv": "ocbEMVHyax6MTNxD",
    "Receiveiv": "8vr5BxmawvE5mZo7",
    "consumerKey": "081b19ddde894e8002c1050a5296d38578f0215790a35992099a82549dab4f26",
    "consumerSecret": "352eb6c41d57a3022d0f8d1e281043ee77bc3dadfc15331eb0184cbe38f65909",
    "consumerToken": "17502a1d18066a7affd74c3950338d7cb2e30acd617ba194f2b86e768e03948b",
    "consumerTokenSecret": "11bdf436a187027d43bd36cbc4cf917fdd9bc7d16087ea49e3b604ab61e5e357",
    "NSAccountNo": "4099054",
    "NSURIBase": "https://4099054.restlets.api.netsuite.com/app/site/hosting/restlet.nl"
  },
  "YeastmanAuthentication": {
    "Auth": "idPty6huNSNURJeXr1DF6s7ZVRFWFXh5rpgpD5GAmbXCJ3CUfaDO8sOhmMx5wc3",
    "iv": "TaBbaKrkvqLZ1UEy",
    "Token": "HSeKXJ61VqOwsrtAXPNRTBuFsZIrhTgYN4NXGroiXM2nQgYP76UPUs47No5poG7",
    "url": "https://classic.yeastman.com/Login/Validator.aspx"
  },
  "CUST": {
    "url": "https://4099054.restlets.api.netsuite.com/app/site/hosting/restlet.nl?script=939&deploy=1",
    "id": 939
  },
  "ORDER": {
    "url": "https://4099054.restlets.api.netsuite.com/app/site/hosting/restlet.nl?script=941&deploy=1",
    "id": 941
  },
  "ITEM": {
    "url": "https://4099054.restlets.api.netsuite.com/app/site/hosting/restlet.nl?script=940&deploy=1",
    "id": 940
  },
  "RESEND_INVOICE": {
    "url": "https://4099054.restlets.api.netsuite.com/app/site/hosting/restlet.nl?script=781&deploy=2",
    "id": 781,
    "deploy": 2
  },
  "FIND_CUSTOMER": {
    "url": "https://4099054.restlets.api.netsuite.com/app/site/hosting/restlet.nl?script=710&deploy=1",
    "id": 710
  }
}